\BOOKMARK [2][]{Outline0.1}{Introduction}{}% 1
\BOOKMARK [2][]{Outline0.2}{Data}{}% 2
\BOOKMARK [2][]{Outline0.3}{Na\357ve Buying Diversification}{}% 3
\BOOKMARK [2][]{Outline0.4}{Sources of Na\357ve Buying Diversification}{}% 4
\BOOKMARK [2][]{Outline0.5}{Na\357ve Buying Diversification and Narrow Framing}{}% 5
\BOOKMARK [2][]{Outline0.6}{Na\357ve Buying Diversification and Simplification}{}% 6
\BOOKMARK [2][]{Outline0.7}{Conclusion}{}% 7
