\relax 
\providecommand\hyper@newdestlabel[2]{}
\providecommand*\new@tpo@label[2]{}
\providecommand\HyperFirstAtBeginDocument{\AtBeginDocument}
\HyperFirstAtBeginDocument{\ifx\hyper@anchor\@undefined
\global\let\oldcontentsline\contentsline
\gdef\contentsline#1#2#3#4{\oldcontentsline{#1}{#2}{#3}}
\global\let\oldnewlabel\newlabel
\gdef\newlabel#1#2{\newlabelxx{#1}#2}
\gdef\newlabelxx#1#2#3#4#5#6{\oldnewlabel{#1}{{#2}{#3}}}
\AtEndDocument{\ifx\hyper@anchor\@undefined
\let\contentsline\oldcontentsline
\let\newlabel\oldnewlabel
\fi}
\fi}
\global\let\hyper@last\relax 
\gdef\HyperFirstAtBeginDocument#1{#1}
\providecommand\HyField@AuxAddToFields[1]{}
\providecommand\HyField@AuxAddToCoFields[2]{}
\providecommand\BKM@entry[2]{}
\providecommand \oddpage@label [2]{}
\babel@aux{USenglish}{}
\BKM@entry{id=1,dest={73656374696F6E2E31},srcline={3}}{496E74726F64756374696F6E}
\citation{Markowitz1952}
\citation{Goetzmann2008}
\citation{Barber2000}
\citation{Odean1998}
\citation{Hartzmark2015}
\citation{Barber2013}
\citation{Hirshleifer2015}
\citation{Barberis2018}
\citation{Gilovich2010}
\citation{Barberis2006}
\citation{Barberis2008}
\@writefile{toc}{\contentsline {section}{\numberline {1}Introduction}{2}{section.1}\protected@file@percent }
\newlabel{sec:introduction}{{1}{2}{Introduction}{section.1}{}}
\newlabel{sec:introduction@cref}{{[section][1][]1}{[1][2][]2}}
\citation{Barberis2001}
\citation{Daniel2001}
\citation{Grinblatt2005}
\citation{Li2013}
\citation{Barberis2016}
\citation{Benartzi2001}
\citation{Huberman2006}
\citation{Benartzi2001}
\citation{Huberman2006}
\citation{Madrian2002}
\citation{Benartzi2007}
\citation{Benartzi2001}
\citation{DeMiguel2009}
\citation{DeMiguel2009}
\citation{DeMiguel2009}
\citation{Benartzi2001}
\citation{Sims2003}
\citation{Dellavigna2009}
\citation{Choi2009}
\citation{Aggarwal2007}
\citation{Johnson2007}
\citation{Barber2013}
\BKM@entry{id=2,dest={73656374696F6E2E32},srcline={3}}{44617461}
\BKM@entry{id=3,dest={73756273656374696F6E2E322E31},srcline={5}}{42726F6B6572616765204163636F756E742044617461}
\BKM@entry{id=4,dest={73756273656374696F6E2E322E32},srcline={9}}{53616D706C65}
\@writefile{toc}{\contentsline {section}{\numberline {2}Data}{8}{section.2}\protected@file@percent }
\newlabel{sec:data}{{2}{8}{Data}{section.2}{}}
\newlabel{sec:data@cref}{{[section][2][]2}{[1][7][]8}}
\@writefile{toc}{\contentsline {subsection}{\numberline {2.1}Brokerage Account Data}{8}{subsection.2.1}\protected@file@percent }
\@writefile{toc}{\contentsline {subsection}{\numberline {2.2}Sample}{8}{subsection.2.2}\protected@file@percent }
\citation{Goetzmann2008}
\citation{Barber2013}
\BKM@entry{id=5,dest={73656374696F6E2E33},srcline={3}}{4E615C333537766520427579696E6720446976657273696669636174696F6E}
\BKM@entry{id=6,dest={73756273656374696F6E2E332E31},srcline={5}}{4D756C7469706C652D53746F636B204275792D44617973}
\@writefile{toc}{\contentsline {section}{\numberline {3}Na\"ive Buying Diversification}{9}{section.3}\protected@file@percent }
\newlabel{sec:results}{{3}{9}{Na\"ive Buying Diversification}{section.3}{}}
\newlabel{sec:results@cref}{{[section][3][]3}{[1][9][]9}}
\@writefile{toc}{\contentsline {subsection}{\numberline {3.1}Multiple-Stock Buy-Days}{9}{subsection.3.1}\protected@file@percent }
\BKM@entry{id=7,dest={73756273656374696F6E2E332E32},srcline={19}}{53746F636B2D616E642D46756E64204275792D44617973}
\@writefile{toc}{\contentsline {subsection}{\numberline {3.2}Stock-and-Fund Buy-Days}{12}{subsection.3.2}\protected@file@percent }
\BKM@entry{id=8,dest={73656374696F6E2E34},srcline={27}}{4578706C6F72696E672074686520536F7572636573206F66204E4244}
\BKM@entry{id=9,dest={73756273656374696F6E2E342E31},srcline={31}}{496E766573746F722054797065733A2047656E64657220616E6420416765}
\citation{Barber2001}
\citation{Choi2002}
\citation{Agnew2003}
\citation{Dorn2005}
\citation{Mitchell2006}
\citation{Korniotis2013}
\@writefile{toc}{\contentsline {section}{\numberline {4}Exploring the Sources of NBD}{13}{section.4}\protected@file@percent }
\@writefile{toc}{\contentsline {subsection}{\numberline {4.1}Investor Types: Gender and Age}{13}{subsection.4.1}\protected@file@percent }
\BKM@entry{id=10,dest={73756273656374696F6E2E342E32},srcline={39}}{446F20496E766573746F7273204C6561726E20746F2041766F6964204E615C333537766520427579696E6720446976657273696669636174696F6E3F}
\citation{Feng2005}
\citation{Seru2010}
\citation{Kaustia2008}
\citation{Chiang2011}
\citation{Agarwal2013}
\citation{Ater2013}
\citation{Miravete2014}
\citation{Barber2001}
\@writefile{toc}{\contentsline {subsection}{\numberline {4.2}Do Investors Learn to Avoid Na\"ive Buying Diversification?}{14}{subsection.4.2}\protected@file@percent }
\BKM@entry{id=11,dest={73756273656374696F6E2E342E33},srcline={47}}{4C696D6974656420417474656E74696F6E204578706C616E6174696F6E7320666F72204E615C333537766520427579696E6720446976657273696669636174696F6E}
\citation{Hirshleifer2003}
\citation{Peng2006}
\citation{Hirshleifer2011}
\citation{Dellavigna2009}
\citation{Hirshleifer2009}
\citation{Hou2009}
\citation{Cohen2013}
\citation{Huang2015}
\citation{Sims2003}
\citation{Dellavigna2009JEL}
\citation{Chetty2014}
\citation{Taubinsky2017}
\citation{Gathergood2018}
\citation{Hirshleifer2011}
\citation{Dellavigna2009}
\@writefile{toc}{\contentsline {subsection}{\numberline {4.3}Limited Attention Explanations for Na\"ive Buying Diversification}{15}{subsection.4.3}\protected@file@percent }
\BKM@entry{id=12,dest={73756273756273656374696F6E2E342E332E31},srcline={53}}{5363616C65206F6620496E766573746D656E74}
\@writefile{toc}{\contentsline {subsubsection}{\numberline {4.3.1}Scale of Investment}{16}{subsubsection.4.3.1}\protected@file@percent }
\BKM@entry{id=13,dest={73756273756273656374696F6E2E342E332E32},srcline={67}}{506F7274666F6C696F2053697A6520616E642054726164696E67204163746976697479}
\@writefile{toc}{\contentsline {subsubsection}{\numberline {4.3.2}Portfolio Size and Trading Activity}{17}{subsubsection.4.3.2}\protected@file@percent }
\citation{Barber2013}
\BKM@entry{id=14,dest={73756273656374696F6E2E342E34},srcline={77}}{54616B696E672053746F636B206F66204E4244204265686176696F72}
\@writefile{toc}{\contentsline {subsection}{\numberline {4.4}Taking Stock of NBD Behavior}{18}{subsection.4.4}\protected@file@percent }
\BKM@entry{id=15,dest={73656374696F6E2E35},srcline={83}}{4E615C333537766520427579696E6720446976657273696669636174696F6E206F72204E615C333537766520506F7274666F6C696F20446976657273696669636174696F6E3F}
\citation{DeMiguel2009}
\BKM@entry{id=16,dest={73756273656374696F6E2E352E31},srcline={88}}{45766964656E63652066726F6D20546F702D5570204275792D44617973}
\@writefile{toc}{\contentsline {section}{\numberline {5}Na\"ive Buying Diversification or Na\"ive Portfolio Diversification?}{19}{section.5}\protected@file@percent }
\@writefile{toc}{\contentsline {subsection}{\numberline {5.1}Evidence from Top-Up Buy-Days}{19}{subsection.5.1}\protected@file@percent }
\BKM@entry{id=17,dest={73756273656374696F6E2E352E32},srcline={100}}{45766964656E63652066726F6D20416C6C204275792D44617973}
\@writefile{toc}{\contentsline {subsection}{\numberline {5.2}Evidence from All Buy-Days}{20}{subsection.5.2}\protected@file@percent }
\BKM@entry{id=18,dest={73656374696F6E2E36},srcline={106}}{4E615C333537766520427579696E6720446976657273696669636174696F6E20616E6420506F7274666F6C696F20506572666F726D616E6365}
\citation{DeMiguel2009}
\citation{DeMiguel2009}
\@writefile{toc}{\contentsline {section}{\numberline {6}Na\"ive Buying Diversification and Portfolio Performance}{21}{section.6}\protected@file@percent }
\newlabel{sec:simulation_main}{{6}{21}{Na\"ive Buying Diversification and Portfolio Performance}{section.6}{}}
\newlabel{sec:simulation_main@cref}{{[section][6][]6}{[1][21][]21}}
\citation{DeMiguel2009}
\BKM@entry{id=19,dest={73656374696F6E2E37},srcline={118}}{312F4E2053656C6C696E67}
\citation{Barber2013}
\citation{Hartzmark2015}
\BKM@entry{id=20,dest={73756273656374696F6E2E372E31},srcline={122}}{312F4E2053656C6C696E67206F6E204D756C7469706C652D53746F636B2053656C6C2044617973}
\BKM@entry{id=21,dest={73756273656374696F6E2E372E32},srcline={126}}{53656C6C696E6720746F204163686965766520312F4E20506F7274666F6C696F73}
\@writefile{toc}{\contentsline {section}{\numberline {7}$1/N$ Selling}{23}{section.7}\protected@file@percent }
\@writefile{toc}{\contentsline {subsection}{\numberline {7.1}$1/N$ Selling on Multiple-Stock Sell Days}{23}{subsection.7.1}\protected@file@percent }
\@writefile{toc}{\contentsline {subsection}{\numberline {7.2}Selling to Achieve $1/N$ Portfolios}{23}{subsection.7.2}\protected@file@percent }
\BKM@entry{id=22,dest={73656374696F6E2E38},srcline={130}}{446F20496E766573746F7273204A6F696E746C792043686F6F736520496E766573746D656E7420416D6F756E747320616E64204E3F}
\@writefile{toc}{\contentsline {section}{\numberline {8}Do Investors Jointly Choose Investment Amounts and $N$?}{24}{section.8}\protected@file@percent }
\BKM@entry{id=23,dest={73656374696F6E2E39},srcline={3}}{436F6E636C7573696F6E}
\@writefile{toc}{\contentsline {section}{\numberline {9}Conclusion}{25}{section.9}\protected@file@percent }
\newlabel{sec:conclusion}{{9}{25}{Conclusion}{section.9}{}}
\newlabel{sec:conclusion@cref}{{[section][9][]9}{[1][25][]25}}
\bibstyle{chicago}
\bibdata{nbd_paper-minimal}
\bibcite{Agarwal2013}{{1}{2008}{{Agarwal et~al.}}{{Agarwal, Driscoll, Gabaix, and Laibson}}}
\bibcite{Aggarwal2007}{{2}{2007}{{Aggarwal and Lucey}}{{Aggarwal and Lucey}}}
\bibcite{Agnew2003}{{3}{2003}{{Agnew et~al.}}{{Agnew, Balduzzi, and Sund{\'{e}}n}}}
\bibcite{Ater2013}{{4}{2013}{{Ater and Landsman}}{{Ater and Landsman}}}
\bibcite{Barber2000}{{5}{2000}{{Barber and Odean}}{{Barber and Odean}}}
\bibcite{Barber2001}{{6}{2001}{{Barber and Odean}}{{Barber and Odean}}}
\bibcite{Barber2013}{{7}{2013}{{Barber and Odean}}{{Barber and Odean}}}
\bibcite{Barberis2018}{{8}{2018}{{Barberis}}{{Barberis}}}
\bibcite{Barberis2001}{{9}{2001}{{Barberis and Huang}}{{Barberis and Huang}}}
\bibcite{Barberis2008}{{10}{2008}{{Barberis and Huang}}{{Barberis and Huang}}}
\bibcite{Barberis2006}{{11}{2006}{{Barberis et~al.}}{{Barberis, Huang, and Thaler}}}
\bibcite{Barberis2016}{{12}{2016}{{Barberis et~al.}}{{Barberis, Mukherjee, and Wang}}}
\bibcite{Benartzi2001}{{13}{2001}{{Benartzi and Thaler}}{{Benartzi and Thaler}}}
\bibcite{Benartzi2007}{{14}{2007}{{Benartzi and Thaler}}{{Benartzi and Thaler}}}
\bibcite{Calvet2007}{{15}{2007}{{Calvet et~al.}}{{Calvet, Campbell, and Sodini}}}
\bibcite{Chetty2014}{{16}{2014}{{Chetty et~al.}}{{Chetty, Friedman, Leth-Petersen, Nielsen, and Olsen}}}
\bibcite{Chiang2011}{{17}{2011}{{Chiang et~al.}}{{Chiang, Hirshleifer, Qian, and Sherman}}}
\bibcite{Choi2009}{{18}{2009}{{Choi et~al.}}{{Choi, Laibson, and Madrian}}}
\bibcite{Choi2002}{{19}{2002}{{Choi et~al.}}{{Choi, Laibson, Madrian, and Metrick}}}
\bibcite{Cohen2013}{{20}{2013}{{Cohen et~al.}}{{Cohen, Diether, and Malloy}}}
\bibcite{Daniel2001}{{21}{2001}{{Daniel et~al.}}{{Daniel, Hirshleifer, and Subrahmanyam}}}
\bibcite{Dellavigna2009JEL}{{22}{2009}{{DellaVigna}}{{DellaVigna}}}
\bibcite{Dellavigna2009}{{23}{2009}{{DellaVigna and Pollet}}{{DellaVigna and Pollet}}}
\bibcite{DeMiguel2009}{{24}{2009}{{DeMiguel et~al.}}{{DeMiguel, Garlappi, and Uppal}}}
\bibcite{Dorn2005}{{25}{2005}{{Dorn and Huberman}}{{Dorn and Huberman}}}
\bibcite{Feng2005}{{26}{2005}{{Feng and Seasholes}}{{Feng and Seasholes}}}
\bibcite{Gathergood2018}{{27}{2018}{{Gathergood et~al.}}{{Gathergood, Mahoney, Stewart, and Weber}}}
\bibcite{Gilovich2010}{{28}{2010}{{Gilovich and Griffin}}{{Gilovich and Griffin}}}
\bibcite{Goetzmann2008}{{29}{2008}{{Goetzmann and Kumar}}{{Goetzmann and Kumar}}}
\bibcite{Grinblatt2005}{{30}{2005}{{Grinblatt and Han}}{{Grinblatt and Han}}}
\bibcite{Hartzmark2015}{{31}{2015}{{Hartzmark}}{{Hartzmark}}}
\bibcite{Higham2002}{{32}{2002}{{Higham}}{{Higham}}}
\bibcite{Hirshleifer2009}{{33}{2009}{{Hirshleifer et~al.}}{{Hirshleifer, Lim, and Teoh}}}
\bibcite{Hirshleifer2011}{{34}{2011}{{Hirshleifer et~al.}}{{Hirshleifer, Lim, and Teoh}}}
\bibcite{Hirshleifer2003}{{35}{2003}{{Hirshleifer and Teoh}}{{Hirshleifer and Teoh}}}
\bibcite{Hirshleifer2015}{{36}{2015}{{Hirshleifer}}{{Hirshleifer}}}
\bibcite{Hou2009}{{37}{2009}{{Hou et~al.}}{{Hou, Peng, and Xiong}}}
\bibcite{Huang2015}{{38}{2015}{{Huang}}{{Huang}}}
\bibcite{Huberman2006}{{39}{2006}{{Huberman and Jiang}}{{Huberman and Jiang}}}
\bibcite{Johnson2007}{{40}{2007}{{Johnson et~al.}}{{Johnson, Johnson, and Shanthikumar}}}
\bibcite{Kaustia2008}{{41}{2008}{{Kaustia and Knupfer}}{{Kaustia and Knupfer}}}
\bibcite{Korniotis2013}{{42}{2013}{{Korniotis and Kumar}}{{Korniotis and Kumar}}}
\bibcite{Li2013}{{43}{2013}{{Li and Yang}}{{Li and Yang}}}
\bibcite{Madrian2002}{{44}{2001}{{Madrian and Shea}}{{Madrian and Shea}}}
\bibcite{Markowitz1952}{{45}{1952}{{Markowitz}}{{Markowitz}}}
\bibcite{Miravete2014}{{46}{2014}{{Miravete and Palacios-Huerta}}{{Miravete and Palacios-Huerta}}}
\bibcite{Mitchell2006}{{47}{2006}{{Mitchell et~al.}}{{Mitchell, Mottola, Utkus, and Yamaguchi}}}
\bibcite{Odean1998}{{48}{1998}{{Odean}}{{Odean}}}
\bibcite{Peng2006}{{49}{2006}{{Peng and Xiong}}{{Peng and Xiong}}}
\bibcite{Seru2010}{{50}{2010}{{Seru et~al.}}{{Seru, Shumway, and Stoffman}}}
\bibcite{Sharpe1994}{{51}{1994}{{Sharpe}}{{Sharpe}}}
\bibcite{Sims2003}{{52}{2003}{{Sims}}{{Sims}}}
\bibcite{Taubinsky2017}{{53}{2017}{{Taubinsky and Rees-Jones}}{{Taubinsky and Rees-Jones}}}
\@writefile{lof}{\contentsline {figure}{\numberline {1}{\ignorespaces Proportion of Buy-Day Investment Allocated to Each Stock on   Multiple-Stock Buy-Days\relax }}{32}{figure.caption.2}\protected@file@percent }
\providecommand*\caption@xref[2]{\@setref\relax\@undefined{#1}}
\newlabel{hist_1pct}{{1}{32}{Proportion of Buy-Day Investment Allocated to Each Stock on \\ Multiple-Stock Buy-Days\relax }{figure.caption.2}{}}
\newlabel{hist_1pct@cref}{{[figure][1][]1}{[1][32][]32}}
\@writefile{lof}{\contentsline {subfigure}{\numberline{(A)}{\ignorespaces {Two Stocks}}}{32}{subfigure.1.4}\protected@file@percent }
\@writefile{lof}{\contentsline {subfigure}{\numberline{(B)}{\ignorespaces {Three Stocks}}}{32}{subfigure.1.4}\protected@file@percent }
\@writefile{lof}{\contentsline {subfigure}{\numberline{(C)}{\ignorespaces {Four Stocks}}}{32}{subfigure.1.4}\protected@file@percent }
\@writefile{lof}{\contentsline {subfigure}{\numberline{(D)}{\ignorespaces {Five Stocks}}}{32}{subfigure.1.4}\protected@file@percent }
\@writefile{lof}{\contentsline {figure}{\numberline {2}{\ignorespaces Na\"ive Buying Diversification by Gender and Age   Two-Stock Buy-Days\relax }}{33}{figure.caption.3}\protected@file@percent }
\newlabel{prop_50_50_gender_age}{{2}{33}{Na\"ive Buying Diversification by Gender and Age \\ Two-Stock Buy-Days\relax }{figure.caption.3}{}}
\newlabel{prop_50_50_gender_age@cref}{{[figure][2][]2}{[1][33][]33}}
\@writefile{lof}{\contentsline {subfigure}{\numberline{(A)}{\ignorespaces {Gender}}}{33}{subfigure.2.2}\protected@file@percent }
\@writefile{lof}{\contentsline {subfigure}{\numberline{(B)}{\ignorespaces {Decade of Birth}}}{33}{subfigure.2.2}\protected@file@percent }
\@writefile{lof}{\contentsline {figure}{\numberline {3}{\ignorespaces Na\"ive Buying Diversification by Account Age and Trading Frequency   Two-Stock Buy-Days\relax }}{34}{figure.caption.4}\protected@file@percent }
\newlabel{prop_50_50_tenure_freq}{{3}{34}{Na\"ive Buying Diversification by Account Age and Trading Frequency \\ Two-Stock Buy-Days\relax }{figure.caption.4}{}}
\newlabel{prop_50_50_tenure_freq@cref}{{[figure][3][]3}{[1][34][]34}}
\@writefile{lof}{\contentsline {subfigure}{\numberline{(A)}{\ignorespaces {Account Tenure}}}{34}{subfigure.3.2}\protected@file@percent }
\@writefile{lof}{\contentsline {subfigure}{\numberline{(B)}{\ignorespaces {Trading Frequency}}}{34}{subfigure.3.2}\protected@file@percent }
\@writefile{lof}{\contentsline {figure}{\numberline {4}{\ignorespaces Na\"ive Buying Diversification by Day and Month   Two-Stock Buy-Days\relax }}{35}{figure.caption.5}\protected@file@percent }
\newlabel{prop_50_50_day_month}{{4}{35}{Na\"ive Buying Diversification by Day and Month \\ Two-Stock Buy-Days\relax }{figure.caption.5}{}}
\newlabel{prop_50_50_day_month@cref}{{[figure][4][]4}{[1][35][]35}}
\@writefile{lof}{\contentsline {subfigure}{\numberline{(A)}{\ignorespaces {Day of the Week}}}{35}{subfigure.4.2}\protected@file@percent }
\@writefile{lof}{\contentsline {subfigure}{\numberline{(B)}{\ignorespaces {Month of the Year}}}{35}{subfigure.4.2}\protected@file@percent }
\@writefile{lof}{\contentsline {figure}{\numberline {5}{\ignorespaces Na\"ive Buying Diversification by Portfolio Value and Investment Amount   Two-Stock Buy-Days\relax }}{36}{figure.caption.6}\protected@file@percent }
\newlabel{prop_50_50_amount_returns}{{5}{36}{Na\"ive Buying Diversification by Portfolio Value and Investment Amount \\ Two-Stock Buy-Days\relax }{figure.caption.6}{}}
\newlabel{prop_50_50_amount_returns@cref}{{[figure][5][]5}{[1][36][]36}}
\@writefile{lof}{\contentsline {subfigure}{\numberline{(A)}{\ignorespaces {Past 3 Month Returns}}}{36}{subfigure.5.4}\protected@file@percent }
\@writefile{lof}{\contentsline {subfigure}{\numberline{(B)}{\ignorespaces {Next 3 Month Returns}}}{36}{subfigure.5.4}\protected@file@percent }
\@writefile{lof}{\contentsline {subfigure}{\numberline{(C)}{\ignorespaces {Portfolio Value}}}{36}{subfigure.5.4}\protected@file@percent }
\@writefile{lof}{\contentsline {subfigure}{\numberline{(D)}{\ignorespaces {Investment Amount on the Day}}}{36}{subfigure.5.4}\protected@file@percent }
\@writefile{lof}{\contentsline {figure}{\numberline {6}{\ignorespaces Na\"ive Buying Diversification by Existing Positions and Sales   Two-Stock Buy-Days\relax }}{37}{figure.caption.7}\protected@file@percent }
\newlabel{prop_50_50_sale_existing}{{6}{37}{Na\"ive Buying Diversification by Existing Positions and Sales \\ Two-Stock Buy-Days\relax }{figure.caption.7}{}}
\newlabel{prop_50_50_sale_existing@cref}{{[figure][6][]6}{[1][37][]37}}
\@writefile{lof}{\contentsline {subfigure}{\numberline{(A)}{\ignorespaces {Existing Position Held}}}{37}{subfigure.6.3}\protected@file@percent }
\@writefile{lof}{\contentsline {subfigure}{\numberline{(B)}{\ignorespaces {Sale on the Day}}}{37}{subfigure.6.3}\protected@file@percent }
\@writefile{lof}{\contentsline {subfigure}{\numberline{(C)}{\ignorespaces {Number of Stocks Held}}}{37}{subfigure.6.3}\protected@file@percent }
\@writefile{lof}{\contentsline {figure}{\numberline {7}{\ignorespaces Na\"ive Buying Diversification vs. Na\"ive Portfolio Diversification   Investors Topping-Up Two-Stock Portfolios\relax }}{38}{figure.caption.8}\protected@file@percent }
\newlabel{top_up}{{7}{38}{Na\"ive Buying Diversification vs. Na\"ive Portfolio Diversification \\ Investors Topping-Up Two-Stock Portfolios\relax }{figure.caption.8}{}}
\newlabel{top_up@cref}{{[figure][7][]7}{[1][38][]38}}
\@writefile{lof}{\contentsline {subfigure}{\numberline{(A)}{\ignorespaces {Whole Sample}}}{38}{subfigure.7.2}\protected@file@percent }
\@writefile{lof}{\contentsline {subfigure}{\numberline{(B)}{\ignorespaces {Restricted Sample}}}{38}{subfigure.7.2}\protected@file@percent }
\@writefile{lof}{\contentsline {figure}{\numberline {8}{\ignorespaces Na\"ive Buying Diversification vs. Na\"ive Portfolio Diversification   All Buy-Days\relax }}{39}{figure.caption.9}\protected@file@percent }
\newlabel{buying_portfolios}{{8}{39}{Na\"ive Buying Diversification vs. Na\"ive Portfolio Diversification \\ All Buy-Days\relax }{figure.caption.9}{}}
\newlabel{buying_portfolios@cref}{{[figure][8][]8}{[1][39][]39}}
\@writefile{lof}{\contentsline {figure}{\numberline {9}{\ignorespaces Distribution of Total Buy-Day Investment (in \pounds  ) by Number of Stocks Bought\relax }}{40}{figure.caption.10}\protected@file@percent }
\newlabel{invest_amts}{{9}{40}{Distribution of Total Buy-Day Investment (in \pounds ) by Number of Stocks Bought\relax }{figure.caption.10}{}}
\newlabel{invest_amts@cref}{{[figure][9][]9}{[1][40][]40}}
\@writefile{lot}{\contentsline {table}{\numberline {1}{\ignorespaces $1/N$ Allocations on Multiple-Stock Buy-Days\relax }}{41}{table.caption.11}\protected@file@percent }
\newlabel{tab:t1}{{1}{41}{$1/N$ Allocations on Multiple-Stock Buy-Days\relax }{table.caption.11}{}}
\newlabel{tab:t1@cref}{{[table][1][]1}{[1][41][]41}}
\@writefile{lot}{\contentsline {subtable}{\numberline{(a)}{\ignorespaces {Panel A: (\pounds $P/N \times (1 \pm 0.02)$) }}}{41}{subtable.1.3}\protected@file@percent }
\@writefile{lot}{\contentsline {subtable}{\numberline{(b)}{\ignorespaces {Panel B: (\pounds $P/N \times (1 \pm 0.05)$) }}}{41}{subtable.1.3}\protected@file@percent }
\@writefile{lot}{\contentsline {subtable}{\numberline{(c)}{\ignorespaces {Panel C: (\pounds $P/N \times (1 \pm 0.05)$) }}}{41}{subtable.1.3}\protected@file@percent }
\@writefile{lot}{\contentsline {table}{\numberline {2}{\ignorespaces Na\"ive Buying Diversification by Investor Characteristics\relax }}{42}{table.caption.12}\protected@file@percent }
\newlabel{tab:investor_panels}{{2}{42}{Na\"ive Buying Diversification by Investor Characteristics\relax }{table.caption.12}{}}
\newlabel{tab:investor_panels@cref}{{[table][2][]2}{[1][42][]42}}
\@writefile{lot}{\contentsline {subtable}{\numberline{(a)}{\ignorespaces {Gender}}}{42}{subtable.2.4}\protected@file@percent }
\@writefile{lot}{\contentsline {subtable}{\numberline{(b)}{\ignorespaces {Decade of Birth}}}{42}{subtable.2.4}\protected@file@percent }
\@writefile{lot}{\contentsline {subtable}{\numberline{(c)}{\ignorespaces {Account Age}}}{42}{subtable.2.4}\protected@file@percent }
\@writefile{lot}{\contentsline {subtable}{\numberline{(d)}{\ignorespaces {Trading Frequency}}}{42}{subtable.2.4}\protected@file@percent }
\@writefile{lot}{\contentsline {table}{\numberline {3}{\ignorespaces Na\"ive Buying Diversification by Trading Characteristics I \relax }}{43}{table.caption.13}\protected@file@percent }
\newlabel{tab:portfolio_panels_1}{{3}{43}{Na\"ive Buying Diversification by Trading Characteristics I \relax }{table.caption.13}{}}
\newlabel{tab:portfolio_panels_1@cref}{{[table][3][]3}{[1][43][]43}}
\@writefile{lot}{\contentsline {subtable}{\numberline{(a)}{\ignorespaces {Day of the Week}}}{43}{subtable.3.4}\protected@file@percent }
\@writefile{lot}{\contentsline {subtable}{\numberline{(b)}{\ignorespaces {Month of the Year}}}{43}{subtable.3.4}\protected@file@percent }
\@writefile{lot}{\contentsline {subtable}{\numberline{(c)}{\ignorespaces {Difference in Past 3 Month Gross Returns}}}{43}{subtable.3.4}\protected@file@percent }
\@writefile{lot}{\contentsline {subtable}{\numberline{(d)}{\ignorespaces {Difference in Next 3 Month Gross Returns}}}{43}{subtable.3.4}\protected@file@percent }
\@writefile{lot}{\contentsline {table}{\numberline {4}{\ignorespaces Na\"ive Buying Diversification by Trading Characteristics II \relax }}{44}{table.caption.14}\protected@file@percent }
\newlabel{tab:portfolio_panels_2}{{4}{44}{Na\"ive Buying Diversification by Trading Characteristics II \relax }{table.caption.14}{}}
\newlabel{tab:portfolio_panels_2@cref}{{[table][4][]4}{[1][44][]44}}
\@writefile{lot}{\contentsline {subtable}{\numberline{(a)}{\ignorespaces {Portfolio Value (\pounds )}}}{44}{subtable.4.5}\protected@file@percent }
\@writefile{lot}{\contentsline {subtable}{\numberline{(b)}{\ignorespaces {Investment Value (\pounds )}}}{44}{subtable.4.5}\protected@file@percent }
\@writefile{lot}{\contentsline {subtable}{\numberline{(c)}{\ignorespaces {Holds Existing Position(s)}}}{44}{subtable.4.5}\protected@file@percent }
\@writefile{lot}{\contentsline {subtable}{\numberline{(d)}{\ignorespaces {Number of Stocks Held}}}{44}{subtable.4.5}\protected@file@percent }
\@writefile{lot}{\contentsline {subtable}{\numberline{(e)}{\ignorespaces {Same Day Sale}}}{44}{subtable.4.5}\protected@file@percent }
\@writefile{lot}{\contentsline {table}{\numberline {5}{\ignorespaces Probit Regression Marginal Effects: $1 / N$ Buying on Two-Stock Buy-Days\relax }}{45}{table.caption.15}\protected@file@percent }
\newlabel{tab:t2}{{5}{45}{Probit Regression Marginal Effects: $1 / N$ Buying on Two-Stock Buy-Days\relax }{table.caption.15}{}}
\newlabel{tab:t2@cref}{{[table][5][]5}{[1][45][]45}}
\@writefile{lot}{\contentsline {table}{\numberline {6}{\ignorespaces Starting and Ending Portfolio Positions on Multiple-Stock Buy-Days\relax }}{47}{table.caption.18}\protected@file@percent }
\newlabel{tab:t3}{{6}{47}{Starting and Ending Portfolio Positions on Multiple-Stock Buy-Days\relax }{table.caption.18}{}}
\newlabel{tab:t3@cref}{{[table][6][]6}{[1][47][]47}}
\@writefile{lot}{\contentsline {table}{\numberline {7}{\ignorespaces Na\"ive Portfolio Diversification, Restricted Sample Buy-Days\relax }}{48}{table.caption.20}\protected@file@percent }
\newlabel{tab:feasible_buy}{{7}{48}{Na\"ive Portfolio Diversification, Restricted Sample Buy-Days\relax }{table.caption.20}{}}
\newlabel{tab:feasible_buy@cref}{{[table][7][]7}{[1][48][]48}}
\@writefile{lot}{\contentsline {table}{\numberline {8}{\ignorespaces Na\"ive Portfolio Diversification By N Stocks Purchased and N Positions   All Buy-Days\relax }}{49}{table.caption.22}\protected@file@percent }
\newlabel{tab:t4}{{8}{49}{Na\"ive Portfolio Diversification By N Stocks Purchased and N Positions \\ All Buy-Days\relax }{table.caption.22}{}}
\newlabel{tab:t4@cref}{{[table][8][]8}{[1][49][]49}}
\@writefile{lot}{\contentsline {table}{\numberline {9}{\ignorespaces Na\"ive Buying Diversification By N Stocks Purchased and N Positions   All Buy-Days\relax }}{50}{table.caption.24}\protected@file@percent }
\newlabel{tab:t5}{{9}{50}{Na\"ive Buying Diversification By N Stocks Purchased and N Positions \\ All Buy-Days\relax }{table.caption.24}{}}
\newlabel{tab:t5@cref}{{[table][9][]9}{[1][50][]50}}
\@writefile{lot}{\contentsline {table}{\numberline {10}{\ignorespaces Sharpe Ratio Simulations for NPD vs. NBD\relax }}{51}{table.caption.26}\protected@file@percent }
\newlabel{tab:sim}{{10}{51}{Sharpe Ratio Simulations for NPD vs. NBD\relax }{table.caption.26}{}}
\newlabel{tab:sim@cref}{{[table][10][]10}{[1][51][]51}}
\BKM@entry{id=24,dest={73656374696F6E2E31},srcline={6}}{53696D756C6174696F6E20416E616C79736973}
\BKM@entry{id=25,dest={73756273656374696F6E2E312E31},srcline={10}}{41737365742050726963652053696D756C6174696F6E}
\citation{DeMiguel2009}
\citation{DeMiguel2009}
\@writefile{toc}{\contentsline {section}{\numberline {A}Simulation Analysis}{52}{section.1}\protected@file@percent }
\newlabel{sec:simulation}{{A}{52}{Simulation Analysis}{section.1}{}}
\newlabel{sec:simulation@cref}{{[section][1][]A}{[1][52][]52}}
\@writefile{toc}{\contentsline {subsection}{\numberline {A.1}Asset Price Simulation}{52}{subsection.1.1}\protected@file@percent }
\newlabel{eq:R}{{1}{52}{Asset Price Simulation}{equation.1.1}{}}
\newlabel{eq:R@cref}{{[equation][1][]1}{[1][52][]52}}
\citation{DeMiguel2009}
\citation{DeMiguel2009}
\@writefile{lof}{\contentsline {figure}{\numberline {A1}{\ignorespaces Number of Stocks Bought on Multiple-Stock Buy-Days\relax }}{54}{figure.caption.29}\protected@file@percent }
\newlabel{nstocks}{{A1}{54}{Number of Stocks Bought on Multiple-Stock Buy-Days\relax }{figure.caption.29}{}}
\newlabel{nstocks@cref}{{[figure][1][1]A1}{[1][54][]54}}
\@writefile{lof}{\contentsline {figure}{\numberline {A2}{\ignorespaces Number of Stocks Bought and Market Volatility\relax }}{55}{figure.caption.30}\protected@file@percent }
\newlabel{nstocks_day}{{A2}{55}{Number of Stocks Bought and Market Volatility\relax }{figure.caption.30}{}}
\newlabel{nstocks_day@cref}{{[figure][2][1]A2}{[1][55][]55}}
\@writefile{lof}{\contentsline {subfigure}{\numberline{(A)}{\ignorespaces {Market Volatility and Mean Stocks Purchased}}}{55}{subfigure.1.2.2}\protected@file@percent }
\@writefile{lof}{\contentsline {subfigure}{\numberline{(B)}{\ignorespaces {Mean Stocks Purchased by Calendar Days}}}{55}{subfigure.1.2.2}\protected@file@percent }
\@writefile{lof}{\contentsline {figure}{\numberline {A3}{\ignorespaces Proportion of Buy-Days with $1/N$ Buying by Number of Stocks Purchased\relax }}{56}{figure.caption.31}\protected@file@percent }
\newlabel{5050_bar}{{A3}{56}{Proportion of Buy-Days with $1/N$ Buying by Number of Stocks Purchased\relax }{figure.caption.31}{}}
\newlabel{5050_bar@cref}{{[figure][3][1]A3}{[1][56][]56}}
\@writefile{lof}{\contentsline {figure}{\numberline {A4}{\ignorespaces $1/N$ Allocation of Money Amount vs. $1/N$ Allocation of Number of Shares\relax }}{57}{figure.caption.32}\protected@file@percent }
\newlabel{naive_shares}{{A4}{57}{$1/N$ Allocation of Money Amount vs. $1/N$ Allocation of Number of Shares\relax }{figure.caption.32}{}}
\newlabel{naive_shares@cref}{{[figure][4][1]A4}{[1][57][]57}}
\@writefile{lof}{\contentsline {subfigure}{\numberline{(A)}{\ignorespaces {Allocation of Number of Shares}}}{57}{subfigure.1.4.2}\protected@file@percent }
\@writefile{lof}{\contentsline {subfigure}{\numberline{(B)}{\ignorespaces {Allocation of Money Amount}}}{57}{subfigure.1.4.2}\protected@file@percent }
\@writefile{lof}{\contentsline {figure}{\numberline {A5}{\ignorespaces Proportion of Two-Stock Buy-Day Investment in Stock A by Gender\relax }}{58}{figure.caption.33}\protected@file@percent }
\newlabel{hist_gender}{{A5}{58}{Proportion of Two-Stock Buy-Day Investment in Stock A by Gender\relax }{figure.caption.33}{}}
\newlabel{hist_gender@cref}{{[figure][5][1]A5}{[1][58][]58}}
\@writefile{lof}{\contentsline {figure}{\numberline {A6}{\ignorespaces Distribution of Investor Decade of Birth\relax }}{59}{figure.caption.34}\protected@file@percent }
\newlabel{dist_age}{{A6}{59}{Distribution of Investor Decade of Birth\relax }{figure.caption.34}{}}
\newlabel{dist_age@cref}{{[figure][6][1]A6}{[1][59][]59}}
\@writefile{lof}{\contentsline {figure}{\numberline {A7}{\ignorespaces Proportion of Two-Stock Buy-Day Investment in Stock A by Age of Investor\relax }}{60}{figure.caption.35}\protected@file@percent }
\newlabel{hist_age}{{A7}{60}{Proportion of Two-Stock Buy-Day Investment in Stock A by Age of Investor\relax }{figure.caption.35}{}}
\newlabel{hist_age@cref}{{[figure][7][1]A7}{[1][60][]60}}
\@writefile{lof}{\contentsline {figure}{\numberline {A8}{\ignorespaces Proportion of Two-Stock Buy-Day Investment in Stock A by Account Tenure\relax }}{61}{figure.caption.36}\protected@file@percent }
\newlabel{hist_tenure}{{A8}{61}{Proportion of Two-Stock Buy-Day Investment in Stock A by Account Tenure\relax }{figure.caption.36}{}}
\newlabel{hist_tenure@cref}{{[figure][8][1]A8}{[1][61][]61}}
\@writefile{lof}{\contentsline {figure}{\numberline {A9}{\ignorespaces Proportion of Two-Stock Buy-Day Investment in Stock A by Trading Frequency\relax }}{62}{figure.caption.37}\protected@file@percent }
\newlabel{hist_freq}{{A9}{62}{Proportion of Two-Stock Buy-Day Investment in Stock A by Trading Frequency\relax }{figure.caption.37}{}}
\newlabel{hist_freq@cref}{{[figure][9][1]A9}{[1][62][]62}}
\@writefile{lof}{\contentsline {figure}{\numberline {A10}{\ignorespaces Distribution of Investment Day of Week\relax }}{63}{figure.caption.38}\protected@file@percent }
\newlabel{dist_day}{{A10}{63}{Distribution of Investment Day of Week\relax }{figure.caption.38}{}}
\newlabel{dist_day@cref}{{[figure][10][1]A10}{[1][63][]63}}
\@writefile{lof}{\contentsline {figure}{\numberline {A11}{\ignorespaces Proportion of Two-Stock Buy-Day Monies Invested in Stock A by Day\relax }}{64}{figure.caption.39}\protected@file@percent }
\newlabel{hist_day}{{A11}{64}{Proportion of Two-Stock Buy-Day Monies Invested in Stock A by Day\relax }{figure.caption.39}{}}
\newlabel{hist_day@cref}{{[figure][11][1]A11}{[1][64][]64}}
\@writefile{lof}{\contentsline {figure}{\numberline {A12}{\ignorespaces Distribution of Investment Month of Year\relax }}{65}{figure.caption.40}\protected@file@percent }
\newlabel{dist_month}{{A12}{65}{Distribution of Investment Month of Year\relax }{figure.caption.40}{}}
\newlabel{dist_month@cref}{{[figure][12][1]A12}{[1][65][]65}}
\@writefile{lof}{\contentsline {figure}{\numberline {A13}{\ignorespaces Proportion of Two-Stock Buy-Day Monies Invested in Stock A by Month\relax }}{66}{figure.caption.41}\protected@file@percent }
\newlabel{hist_month}{{A13}{66}{Proportion of Two-Stock Buy-Day Monies Invested in Stock A by Month\relax }{figure.caption.41}{}}
\newlabel{hist_month@cref}{{[figure][13][1]A13}{[1][66][]66}}
\@writefile{lof}{\contentsline {figure}{\numberline {A14}{\ignorespaces Proportion of Two-Stock Buy-Day Monies Invested in Stock A by Difference in Past 3 Month Stock Returns\relax }}{67}{figure.caption.42}\protected@file@percent }
\newlabel{hist_past3}{{A14}{67}{Proportion of Two-Stock Buy-Day Monies Invested in Stock A by Difference in Past 3 Month Stock Returns\relax }{figure.caption.42}{}}
\newlabel{hist_past3@cref}{{[figure][14][1]A14}{[1][67][]67}}
\@writefile{lof}{\contentsline {figure}{\numberline {A15}{\ignorespaces Proportion of Two-Stock Buy-Day Monies Invested in Stock A by Difference in Next 3 Month Stock Returns\relax }}{68}{figure.caption.43}\protected@file@percent }
\newlabel{hist_next3}{{A15}{68}{Proportion of Two-Stock Buy-Day Monies Invested in Stock A by Difference in Next 3 Month Stock Returns\relax }{figure.caption.43}{}}
\newlabel{hist_next3@cref}{{[figure][15][1]A15}{[1][68][]68}}
\@writefile{lof}{\contentsline {figure}{\numberline {A16}{\ignorespaces Na\"ive Buying Diversification by Two-Stock Buy-Days With Same Industry Stock Purchases and Different Industry Stock Purchases\relax }}{69}{figure.caption.44}\protected@file@percent }
\newlabel{indsutry}{{A16}{69}{Na\"ive Buying Diversification by Two-Stock Buy-Days With Same Industry Stock Purchases and Different Industry Stock Purchases\relax }{figure.caption.44}{}}
\newlabel{indsutry@cref}{{[figure][16][1]A16}{[1][69][]69}}
\@writefile{lof}{\contentsline {subfigure}{\numberline{(A)}{\ignorespaces {Proportion NBD}}}{69}{subfigure.1.16.2}\protected@file@percent }
\@writefile{lof}{\contentsline {subfigure}{\numberline{(B)}{\ignorespaces {Proportion of Two-Stock Buy-Day Investment in Stock A}}}{69}{subfigure.1.16.2}\protected@file@percent }
\@writefile{lof}{\contentsline {figure}{\numberline {A17}{\ignorespaces Proportion of Two-Stock Buy-Day Investment in Stock A Among New Accounts\relax }}{70}{figure.caption.45}\protected@file@percent }
\newlabel{hist_new}{{A17}{70}{Proportion of Two-Stock Buy-Day Investment in Stock A Among New Accounts\relax }{figure.caption.45}{}}
\newlabel{hist_new@cref}{{[figure][17][1]A17}{[1][70][]70}}
\@writefile{lof}{\contentsline {figure}{\numberline {A18}{\ignorespaces Proportion of Two-Stock Buy-Day Monies Invested in Stock A by Portfolio Value, New Accounts Only\relax }}{71}{figure.caption.46}\protected@file@percent }
\newlabel{hist_value}{{A18}{71}{Proportion of Two-Stock Buy-Day Monies Invested in Stock A by Portfolio Value, New Accounts Only\relax }{figure.caption.46}{}}
\newlabel{hist_value@cref}{{[figure][18][1]A18}{[1][71][]71}}
\@writefile{lof}{\contentsline {figure}{\numberline {A19}{\ignorespaces Proportion of Two-Stock Buy-Day Monies Invested in Stock A by Investment Amount on the Day\relax }}{72}{figure.caption.47}\protected@file@percent }
\newlabel{hist_amount}{{A19}{72}{Proportion of Two-Stock Buy-Day Monies Invested in Stock A by Investment Amount on the Day\relax }{figure.caption.47}{}}
\newlabel{hist_amount@cref}{{[figure][19][1]A19}{[1][72][]72}}
\@writefile{lof}{\contentsline {figure}{\numberline {A20}{\ignorespaces Proportion of Two-Stock Buy-Day Monies Invested in Stock A by Number of Stocks in Portfolio, New Accounts Only\relax }}{73}{figure.caption.48}\protected@file@percent }
\newlabel{hist_nstocks}{{A20}{73}{Proportion of Two-Stock Buy-Day Monies Invested in Stock A by Number of Stocks in Portfolio, New Accounts Only\relax }{figure.caption.48}{}}
\newlabel{hist_nstocks@cref}{{[figure][20][1]A20}{[1][73][]73}}
\@writefile{lof}{\contentsline {figure}{\numberline {A21}{\ignorespaces Proportion of Sell-Day Monies From Sale of Random Stock A, All Two-Stock Sell-Days\relax }}{74}{figure.caption.49}\protected@file@percent }
\newlabel{sell_fig}{{A21}{74}{Proportion of Sell-Day Monies From Sale of Random Stock A, All Two-Stock Sell-Days\relax }{figure.caption.49}{}}
\newlabel{sell_fig@cref}{{[figure][21][1]A21}{[1][74][]74}}
\@writefile{lof}{\contentsline {figure}{\numberline {A22}{\ignorespaces Distribution of Total Buy-Day Investment (in \pounds  ) Divided by Number of Stocks Bought on the Buy-Day\relax }}{75}{figure.caption.50}\protected@file@percent }
\newlabel{inv_per_stock}{{A22}{75}{Distribution of Total Buy-Day Investment (in \pounds ) Divided by Number of Stocks Bought on the Buy-Day\relax }{figure.caption.50}{}}
\newlabel{inv_per_stock@cref}{{[figure][22][1]A22}{[1][75][]75}}
\@writefile{lof}{\contentsline {figure}{\numberline {A23}{\ignorespaces Total Buy-Day Investment Amounts By Number Of Stocks Bought\relax }}{76}{figure.caption.51}\protected@file@percent }
\newlabel{total_amounts}{{A23}{76}{Total Buy-Day Investment Amounts By Number Of Stocks Bought\relax }{figure.caption.51}{}}
\newlabel{total_amounts@cref}{{[figure][23][1]A23}{[1][76][]76}}
\@writefile{lof}{\contentsline {subfigure}{\numberline{(A)}{\ignorespaces {Median Buy-Day Allocation}}}{76}{subfigure.1.23.2}\protected@file@percent }
\@writefile{lof}{\contentsline {subfigure}{\numberline{(B)}{\ignorespaces {Mean End of Day Portfolio Allocation}}}{76}{subfigure.1.23.2}\protected@file@percent }
\@writefile{lot}{\contentsline {table}{\numberline {A1}{\ignorespaces Summary Statistics for All Multiple-Stock Buy-Days\vspace  {0.5cm}\relax }}{77}{table.caption.53}\protected@file@percent }
\newlabel{tab:ta1}{{A1}{77}{Summary Statistics for All Multiple-Stock Buy-Days\vspace {0.5cm}\relax }{table.caption.53}{}}
\newlabel{tab:ta1@cref}{{[table][1][1]A1}{[1][77][]77}}
\@writefile{lot}{\contentsline {table}{\numberline {A2}{\ignorespaces Summary Statistics for New Account Multiple-Stock Buy-Days\vspace  {0.5cm}\relax }}{78}{table.caption.55}\protected@file@percent }
\newlabel{tab:ta2}{{A2}{78}{Summary Statistics for New Account Multiple-Stock Buy-Days\vspace {0.5cm}\relax }{table.caption.55}{}}
\newlabel{tab:ta2@cref}{{[table][2][1]A2}{[1][78][]78}}
\@writefile{lot}{\contentsline {table}{\numberline {A3}{\ignorespaces $1/N$ Allocations on ETF-and-Stock Buy-Days\relax }}{79}{table.caption.56}\protected@file@percent }
\newlabel{tab:nbd_etf}{{A3}{79}{$1/N$ Allocations on ETF-and-Stock Buy-Days\relax }{table.caption.56}{}}
\newlabel{tab:nbd_etf@cref}{{[table][3][1]A3}{[1][79][]79}}
\@writefile{lot}{\contentsline {subtable}{\numberline{(a)}{\ignorespaces {Panel A: (\pounds $P/N \times (1 \pm 0.02)$) }}}{79}{subtable.1.3.3}\protected@file@percent }
\@writefile{lot}{\contentsline {subtable}{\numberline{(b)}{\ignorespaces {Panel B: (\pounds $P/N \times (1 \pm 0.05)$) }}}{79}{subtable.1.3.3}\protected@file@percent }
\@writefile{lot}{\contentsline {subtable}{\numberline{(c)}{\ignorespaces {Panel C: (\pounds $P/N \times (1 \pm 0.1)$) }}}{79}{subtable.1.3.3}\protected@file@percent }
\@writefile{lot}{\contentsline {table}{\numberline {A4}{\ignorespaces $1/N$ Allocations on FTSE-100 ETF-and-Stock Buy-Days\relax }}{80}{table.caption.57}\protected@file@percent }
\newlabel{tab:nbd_etf_ftse}{{A4}{80}{$1/N$ Allocations on FTSE-100 ETF-and-Stock Buy-Days\relax }{table.caption.57}{}}
\newlabel{tab:nbd_etf_ftse@cref}{{[table][4][1]A4}{[1][80][]80}}
\@writefile{lot}{\contentsline {subtable}{\numberline{(a)}{\ignorespaces {Panel A: (\pounds $P/N \times (1 \pm 0.02)$) }}}{80}{subtable.1.4.3}\protected@file@percent }
\@writefile{lot}{\contentsline {subtable}{\numberline{(b)}{\ignorespaces {Panel B: (\pounds $P/N \times (1 \pm 0.05)$) }}}{80}{subtable.1.4.3}\protected@file@percent }
\@writefile{lot}{\contentsline {subtable}{\numberline{(c)}{\ignorespaces {Panel C: (\pounds $P/N \times (1 \pm 0.10)$) }}}{80}{subtable.1.4.3}\protected@file@percent }
\@writefile{lot}{\contentsline {table}{\numberline {A5}{\ignorespaces Proportion of Sell-Days on Which Investor Splits Sales $1 / N$\relax }}{81}{table.caption.58}\protected@file@percent }
\newlabel{tab:sell}{{A5}{81}{Proportion of Sell-Days on Which Investor Splits Sales $1 / N$\relax }{table.caption.58}{}}
\newlabel{tab:sell@cref}{{[table][5][1]A5}{[1][81][]81}}
\@writefile{lot}{\contentsline {subtable}{\numberline{(a)}{\ignorespaces {Panel A: (\pounds $P/N \times (1 \pm 0.02)$) }}}{81}{subtable.1.5.1}\protected@file@percent }
\@writefile{lot}{\contentsline {table}{\numberline {A6}{\ignorespaces Proportion of Sell-Days on Which Investors Achieve $1/N$ Portfolios\relax }}{82}{table.caption.60}\protected@file@percent }
\newlabel{tab:sell_portfolios}{{A6}{82}{Proportion of Sell-Days on Which Investors Achieve $1/N$ Portfolios\relax }{table.caption.60}{}}
\newlabel{tab:sell_portfolios@cref}{{[table][6][1]A6}{[1][82][]82}}
\@writefile{lot}{\contentsline {table}{\numberline {A7}{\ignorespaces Proportion of Sell-Days with NPD by Number of Stocks, Feasible NPD Sample\relax }}{83}{table.caption.62}\protected@file@percent }
\newlabel{tab:feasible_sell}{{A7}{83}{Proportion of Sell-Days with NPD by Number of Stocks, Feasible NPD Sample\relax }{table.caption.62}{}}
\newlabel{tab:feasible_sell@cref}{{[table][7][1]A7}{[1][83][]83}}
\@writefile{lot}{\contentsline {table}{\numberline {A8}{\ignorespaces Proportion of Buy-and-Sell Days with NPD by Number of Stocks, Feasible NPD Sample\relax }}{84}{table.caption.64}\protected@file@percent }
\newlabel{tab:feasible_both}{{A8}{84}{Proportion of Buy-and-Sell Days with NPD by Number of Stocks, Feasible NPD Sample\relax }{table.caption.64}{}}
\newlabel{tab:feasible_both@cref}{{[table][8][1]A8}{[1][84][]84}}
\global\csname @altsecnumformattrue\endcsname
