\relax 
\providecommand\hyper@newdestlabel[2]{}
\providecommand\HyperFirstAtBeginDocument{\AtBeginDocument}
\HyperFirstAtBeginDocument{\ifx\hyper@anchor\@undefined
\global\let\oldcontentsline\contentsline
\gdef\contentsline#1#2#3#4{\oldcontentsline{#1}{#2}{#3}}
\global\let\oldnewlabel\newlabel
\gdef\newlabel#1#2{\newlabelxx{#1}#2}
\gdef\newlabelxx#1#2#3#4#5#6{\oldnewlabel{#1}{{#2}{#3}}}
\AtEndDocument{\ifx\hyper@anchor\@undefined
\let\contentsline\oldcontentsline
\let\newlabel\oldnewlabel
\fi}
\fi}
\global\let\hyper@last\relax 
\gdef\HyperFirstAtBeginDocument#1{#1}
\providecommand\HyField@AuxAddToFields[1]{}
\providecommand\HyField@AuxAddToCoFields[2]{}
\@writefile{toc}{\beamer@endinputifotherversion {3.36pt}}
\@writefile{nav}{\beamer@endinputifotherversion {3.36pt}}
\@writefile{nav}{\headcommand {\slideentry {0}{0}{1}{1/1}{}{0}}}
\@writefile{nav}{\headcommand {\beamer@framepages {1}{1}}}
\@writefile{nav}{\headcommand {\slideentry {0}{0}{2}{2/2}{}{0}}}
\@writefile{nav}{\headcommand {\beamer@framepages {2}{2}}}
\@writefile{toc}{\beamer@sectionintoc {1}{Introduction}{3}{0}{1}}
\@writefile{nav}{\headcommand {\sectionentry {1}{Introduction}{3}{Introduction}{0}}}
\@writefile{nav}{\headcommand {\beamer@sectionpages {1}{2}}}
\@writefile{nav}{\headcommand {\beamer@subsectionpages {1}{2}}}
\@writefile{nav}{\headcommand {\slideentry {1}{0}{3}{3/3}{}{0}}}
\@writefile{nav}{\headcommand {\beamer@framepages {3}{3}}}
\@writefile{nav}{\headcommand {\slideentry {1}{0}{4}{4/4}{}{0}}}
\@writefile{nav}{\headcommand {\beamer@framepages {4}{4}}}
\@writefile{nav}{\headcommand {\slideentry {1}{0}{5}{5/5}{}{0}}}
\@writefile{nav}{\headcommand {\beamer@framepages {5}{5}}}
\@writefile{nav}{\headcommand {\slideentry {1}{0}{6}{6/6}{}{0}}}
\@writefile{nav}{\headcommand {\beamer@framepages {6}{6}}}
\@writefile{nav}{\headcommand {\slideentry {1}{0}{7}{7/7}{}{0}}}
\@writefile{nav}{\headcommand {\beamer@framepages {7}{7}}}
\@writefile{nav}{\headcommand {\slideentry {1}{0}{8}{8/8}{}{0}}}
\@writefile{nav}{\headcommand {\beamer@framepages {8}{8}}}
\@writefile{nav}{\headcommand {\slideentry {1}{0}{9}{9/9}{}{0}}}
\@writefile{nav}{\headcommand {\beamer@framepages {9}{9}}}
\@writefile{nav}{\headcommand {\slideentry {1}{0}{10}{10/10}{}{0}}}
\@writefile{nav}{\headcommand {\beamer@framepages {10}{10}}}
\@writefile{toc}{\beamer@sectionintoc {2}{Data}{11}{0}{2}}
\@writefile{nav}{\headcommand {\sectionentry {2}{Data}{11}{Data}{0}}}
\@writefile{nav}{\headcommand {\beamer@sectionpages {3}{10}}}
\@writefile{nav}{\headcommand {\beamer@subsectionpages {3}{10}}}
\@writefile{nav}{\headcommand {\slideentry {2}{0}{11}{11/11}{}{0}}}
\@writefile{nav}{\headcommand {\beamer@framepages {11}{11}}}
\@writefile{nav}{\headcommand {\slideentry {2}{0}{12}{12/12}{}{0}}}
\@writefile{nav}{\headcommand {\beamer@framepages {12}{12}}}
\@writefile{nav}{\headcommand {\slideentry {2}{0}{13}{13/13}{}{0}}}
\@writefile{nav}{\headcommand {\beamer@framepages {13}{13}}}
\@writefile{nav}{\headcommand {\slideentry {2}{0}{14}{14/14}{}{0}}}
\@writefile{nav}{\headcommand {\beamer@framepages {14}{14}}}
\@writefile{nav}{\headcommand {\slideentry {2}{0}{15}{15/15}{}{0}}}
\@writefile{nav}{\headcommand {\beamer@framepages {15}{15}}}
\newlabel{nstocks}{{16}{16}{Data}{Doc-Start}{}}
\@writefile{snm}{\beamer@slide {nstocks}{16}}
\@writefile{nav}{\headcommand {\slideentry {2}{0}{16}{16/16}{}{0}}}
\@writefile{nav}{\headcommand {\beamer@framepages {16}{16}}}
\@writefile{nav}{\headcommand {\slideentry {2}{0}{17}{17/17}{}{0}}}
\@writefile{nav}{\headcommand {\beamer@framepages {17}{17}}}
\@writefile{toc}{\beamer@sectionintoc {3}{Na\"ive Buying Diversification}{18}{0}{3}}
\@writefile{nav}{\headcommand {\sectionentry {3}{Na\"ive Buying Diversification}{18}{Na\"ive Buying Diversification}{0}}}
\@writefile{nav}{\headcommand {\beamer@sectionpages {11}{17}}}
\@writefile{nav}{\headcommand {\beamer@subsectionpages {11}{17}}}
\@writefile{nav}{\headcommand {\slideentry {3}{0}{18}{18/18}{}{0}}}
\@writefile{nav}{\headcommand {\beamer@framepages {18}{18}}}
\@writefile{nav}{\headcommand {\slideentry {3}{0}{19}{19/19}{}{0}}}
\@writefile{nav}{\headcommand {\beamer@framepages {19}{19}}}
\@writefile{nav}{\headcommand {\slideentry {3}{0}{20}{20/20}{}{0}}}
\@writefile{nav}{\headcommand {\beamer@framepages {20}{20}}}
\@writefile{nav}{\headcommand {\slideentry {3}{0}{21}{21/21}{}{0}}}
\@writefile{nav}{\headcommand {\beamer@framepages {21}{21}}}
\@writefile{nav}{\headcommand {\slideentry {3}{0}{22}{22/22}{}{0}}}
\@writefile{nav}{\headcommand {\beamer@framepages {22}{22}}}
\@writefile{nav}{\headcommand {\slideentry {3}{0}{23}{23/23}{}{0}}}
\@writefile{nav}{\headcommand {\beamer@framepages {23}{23}}}
\@writefile{nav}{\headcommand {\slideentry {3}{0}{24}{24/24}{}{0}}}
\@writefile{nav}{\headcommand {\beamer@framepages {24}{24}}}
\@writefile{nav}{\headcommand {\slideentry {3}{0}{25}{25/25}{}{0}}}
\@writefile{nav}{\headcommand {\beamer@framepages {25}{25}}}
\@writefile{nav}{\headcommand {\slideentry {3}{0}{26}{26/26}{}{0}}}
\@writefile{nav}{\headcommand {\beamer@framepages {26}{26}}}
\@writefile{nav}{\headcommand {\slideentry {3}{0}{27}{27/27}{}{0}}}
\@writefile{nav}{\headcommand {\beamer@framepages {27}{27}}}
\@writefile{nav}{\headcommand {\slideentry {3}{0}{28}{28/28}{}{0}}}
\@writefile{nav}{\headcommand {\beamer@framepages {28}{28}}}
\@writefile{toc}{\beamer@sectionintoc {4}{Sources of Na\"ive Buying Diversification}{29}{0}{4}}
\@writefile{nav}{\headcommand {\sectionentry {4}{Sources of Na\"ive Buying Diversification}{29}{Sources of Na\"ive Buying Diversification}{0}}}
\@writefile{nav}{\headcommand {\beamer@sectionpages {18}{28}}}
\@writefile{nav}{\headcommand {\beamer@subsectionpages {18}{28}}}
\@writefile{nav}{\headcommand {\slideentry {4}{0}{29}{29/29}{}{0}}}
\@writefile{nav}{\headcommand {\beamer@framepages {29}{29}}}
\@writefile{nav}{\headcommand {\slideentry {4}{0}{30}{30/30}{}{0}}}
\@writefile{nav}{\headcommand {\beamer@framepages {30}{30}}}
\@writefile{nav}{\headcommand {\slideentry {4}{0}{31}{31/31}{}{0}}}
\@writefile{nav}{\headcommand {\beamer@framepages {31}{31}}}
\newlabel{gender}{{32}{32}{Sources of Na\"ive Buying Diversification}{Doc-Start}{}}
\@writefile{snm}{\beamer@slide {gender}{32}}
\@writefile{nav}{\headcommand {\slideentry {4}{0}{32}{32/32}{}{0}}}
\@writefile{nav}{\headcommand {\beamer@framepages {32}{32}}}
\newlabel{age}{{33}{33}{Sources of Na\"ive Buying Diversification}{Doc-Start}{}}
\@writefile{snm}{\beamer@slide {age}{33}}
\@writefile{nav}{\headcommand {\slideentry {4}{0}{33}{33/33}{}{0}}}
\@writefile{nav}{\headcommand {\beamer@framepages {33}{33}}}
\newlabel{day}{{34}{34}{Sources of Na\"ive Buying Diversification}{Doc-Start}{}}
\@writefile{snm}{\beamer@slide {day}{34}}
\@writefile{nav}{\headcommand {\slideentry {4}{0}{34}{34/34}{}{0}}}
\@writefile{nav}{\headcommand {\beamer@framepages {34}{34}}}
\newlabel{month}{{35}{35}{Sources of Na\"ive Buying Diversification}{Doc-Start}{}}
\@writefile{snm}{\beamer@slide {month}{35}}
\@writefile{nav}{\headcommand {\slideentry {4}{0}{35}{35/35}{}{0}}}
\@writefile{nav}{\headcommand {\beamer@framepages {35}{35}}}
\@writefile{nav}{\headcommand {\slideentry {4}{0}{36}{36/36}{}{0}}}
\@writefile{nav}{\headcommand {\beamer@framepages {36}{36}}}
\newlabel{accage}{{37}{37}{Sources of Na\"ive Buying Diversification}{Doc-Start}{}}
\@writefile{snm}{\beamer@slide {accage}{37}}
\@writefile{nav}{\headcommand {\slideentry {4}{0}{37}{37/37}{}{0}}}
\@writefile{nav}{\headcommand {\beamer@framepages {37}{37}}}
\newlabel{freq}{{38}{38}{Sources of Na\"ive Buying Diversification}{Doc-Start}{}}
\@writefile{snm}{\beamer@slide {freq}{38}}
\@writefile{nav}{\headcommand {\slideentry {4}{0}{38}{38/38}{}{0}}}
\@writefile{nav}{\headcommand {\beamer@framepages {38}{38}}}
\@writefile{nav}{\headcommand {\slideentry {4}{0}{39}{39/39}{}{0}}}
\@writefile{nav}{\headcommand {\beamer@framepages {39}{39}}}
\newlabel{preturns}{{40}{40}{Sources of Na\"ive Buying Diversification}{Doc-Start}{}}
\@writefile{snm}{\beamer@slide {preturns}{40}}
\@writefile{nav}{\headcommand {\slideentry {4}{0}{40}{40/40}{}{0}}}
\@writefile{nav}{\headcommand {\beamer@framepages {40}{40}}}
\newlabel{value}{{41}{41}{Sources of Na\"ive Buying Diversification}{Doc-Start}{}}
\@writefile{snm}{\beamer@slide {value}{41}}
\@writefile{nav}{\headcommand {\slideentry {4}{0}{41}{41/41}{}{0}}}
\@writefile{nav}{\headcommand {\beamer@framepages {41}{41}}}
\@writefile{nav}{\headcommand {\slideentry {4}{0}{42}{42/42}{}{0}}}
\@writefile{nav}{\headcommand {\beamer@framepages {42}{42}}}
\@writefile{nav}{\headcommand {\slideentry {4}{0}{43}{43/43}{}{0}}}
\@writefile{nav}{\headcommand {\beamer@framepages {43}{43}}}
\@writefile{toc}{\beamer@sectionintoc {5}{Na\"ive Buying Diversification and Narrow Framing}{44}{0}{5}}
\@writefile{nav}{\headcommand {\sectionentry {5}{Na\"ive Buying Diversification and Narrow Framing}{44}{Na\"ive Buying Diversification and Narrow Framing}{0}}}
\@writefile{nav}{\headcommand {\beamer@sectionpages {29}{43}}}
\@writefile{nav}{\headcommand {\beamer@subsectionpages {29}{43}}}
\@writefile{nav}{\headcommand {\slideentry {5}{0}{44}{44/44}{}{0}}}
\@writefile{nav}{\headcommand {\beamer@framepages {44}{44}}}
\@writefile{nav}{\headcommand {\slideentry {5}{0}{45}{45/45}{}{0}}}
\@writefile{nav}{\headcommand {\beamer@framepages {45}{45}}}
\@writefile{nav}{\headcommand {\slideentry {5}{0}{46}{46/46}{}{0}}}
\@writefile{nav}{\headcommand {\beamer@framepages {46}{46}}}
\@writefile{nav}{\headcommand {\slideentry {5}{0}{47}{47/47}{}{0}}}
\@writefile{nav}{\headcommand {\beamer@framepages {47}{47}}}
\@writefile{nav}{\headcommand {\slideentry {5}{0}{48}{48/48}{}{0}}}
\@writefile{nav}{\headcommand {\beamer@framepages {48}{48}}}
\@writefile{nav}{\headcommand {\slideentry {5}{0}{49}{49/49}{}{0}}}
\@writefile{nav}{\headcommand {\beamer@framepages {49}{49}}}
\@writefile{nav}{\headcommand {\slideentry {5}{0}{50}{50/50}{}{0}}}
\@writefile{nav}{\headcommand {\beamer@framepages {50}{50}}}
\@writefile{nav}{\headcommand {\slideentry {5}{0}{51}{51/51}{}{0}}}
\@writefile{nav}{\headcommand {\beamer@framepages {51}{51}}}
\@writefile{nav}{\headcommand {\slideentry {5}{0}{52}{52/52}{}{0}}}
\@writefile{nav}{\headcommand {\beamer@framepages {52}{52}}}
\@writefile{nav}{\headcommand {\slideentry {5}{0}{53}{53/53}{}{0}}}
\@writefile{nav}{\headcommand {\beamer@framepages {53}{53}}}
\@writefile{nav}{\headcommand {\slideentry {5}{0}{54}{54/54}{}{0}}}
\@writefile{nav}{\headcommand {\beamer@framepages {54}{54}}}
\@writefile{nav}{\headcommand {\slideentry {5}{0}{55}{55/55}{}{0}}}
\@writefile{nav}{\headcommand {\beamer@framepages {55}{55}}}
\@writefile{nav}{\headcommand {\slideentry {5}{0}{56}{56/56}{}{0}}}
\@writefile{nav}{\headcommand {\beamer@framepages {56}{56}}}
\@writefile{nav}{\headcommand {\slideentry {5}{0}{57}{57/57}{}{0}}}
\@writefile{nav}{\headcommand {\beamer@framepages {57}{57}}}
\@writefile{toc}{\beamer@sectionintoc {6}{Na\"ive Buying Diversification and Simplification}{58}{0}{6}}
\@writefile{nav}{\headcommand {\sectionentry {6}{Na\"ive Buying Diversification and Simplification}{58}{Na\"ive Buying Diversification and Simplification}{0}}}
\@writefile{nav}{\headcommand {\beamer@sectionpages {44}{57}}}
\@writefile{nav}{\headcommand {\beamer@subsectionpages {44}{57}}}
\@writefile{nav}{\headcommand {\slideentry {6}{0}{58}{58/58}{}{0}}}
\@writefile{nav}{\headcommand {\beamer@framepages {58}{58}}}
\@writefile{nav}{\headcommand {\slideentry {6}{0}{59}{59/59}{}{0}}}
\@writefile{nav}{\headcommand {\beamer@framepages {59}{59}}}
\@writefile{nav}{\headcommand {\slideentry {6}{0}{60}{60/60}{}{0}}}
\@writefile{nav}{\headcommand {\beamer@framepages {60}{60}}}
\@writefile{nav}{\headcommand {\slideentry {6}{0}{61}{61/61}{}{0}}}
\@writefile{nav}{\headcommand {\beamer@framepages {61}{61}}}
\@writefile{nav}{\headcommand {\slideentry {6}{0}{62}{62/62}{}{0}}}
\@writefile{nav}{\headcommand {\beamer@framepages {62}{62}}}
\@writefile{nav}{\headcommand {\slideentry {6}{0}{63}{63/63}{}{0}}}
\@writefile{nav}{\headcommand {\beamer@framepages {63}{63}}}
\@writefile{nav}{\headcommand {\slideentry {6}{0}{64}{64/64}{}{0}}}
\@writefile{nav}{\headcommand {\beamer@framepages {64}{64}}}
\@writefile{nav}{\headcommand {\slideentry {6}{0}{65}{65/65}{}{0}}}
\@writefile{nav}{\headcommand {\beamer@framepages {65}{65}}}
\@writefile{nav}{\headcommand {\slideentry {6}{0}{66}{66/66}{}{0}}}
\@writefile{nav}{\headcommand {\beamer@framepages {66}{66}}}
\@writefile{toc}{\beamer@sectionintoc {7}{Conclusion}{67}{0}{7}}
\@writefile{nav}{\headcommand {\sectionentry {7}{Conclusion}{67}{Conclusion}{0}}}
\@writefile{nav}{\headcommand {\beamer@sectionpages {58}{66}}}
\@writefile{nav}{\headcommand {\beamer@subsectionpages {58}{66}}}
\@writefile{nav}{\headcommand {\slideentry {7}{0}{67}{67/67}{}{0}}}
\@writefile{nav}{\headcommand {\beamer@framepages {67}{67}}}
\@writefile{nav}{\headcommand {\slideentry {7}{0}{68}{68/68}{}{0}}}
\@writefile{nav}{\headcommand {\beamer@framepages {68}{68}}}
\@writefile{nav}{\headcommand {\slideentry {7}{0}{69}{69/69}{}{0}}}
\@writefile{nav}{\headcommand {\beamer@framepages {69}{69}}}
\@writefile{nav}{\headcommand {\slideentry {7}{0}{70}{70/70}{}{0}}}
\@writefile{nav}{\headcommand {\beamer@framepages {70}{70}}}
\newlabel{stockvolatility}{{71}{71}{Conclusion}{Doc-Start}{}}
\@writefile{snm}{\beamer@slide {stockvolatility}{71}}
\@writefile{nav}{\headcommand {\slideentry {7}{0}{71}{71/71}{}{0}}}
\@writefile{nav}{\headcommand {\beamer@framepages {71}{71}}}
\newlabel{stocktime}{{72}{72}{Conclusion}{Doc-Start}{}}
\@writefile{snm}{\beamer@slide {stocktime}{72}}
\@writefile{nav}{\headcommand {\slideentry {7}{0}{72}{72/72}{}{0}}}
\@writefile{nav}{\headcommand {\beamer@framepages {72}{72}}}
\newlabel{genderhist}{{73}{73}{Conclusion}{Doc-Start}{}}
\@writefile{snm}{\beamer@slide {genderhist}{73}}
\@writefile{nav}{\headcommand {\slideentry {7}{0}{73}{73/73}{}{0}}}
\@writefile{nav}{\headcommand {\beamer@framepages {73}{73}}}
\newlabel{agedist}{{74}{74}{Conclusion}{Doc-Start}{}}
\@writefile{snm}{\beamer@slide {agedist}{74}}
\@writefile{nav}{\headcommand {\slideentry {7}{0}{74}{74/74}{}{0}}}
\@writefile{nav}{\headcommand {\beamer@framepages {74}{74}}}
\newlabel{agehist}{{75}{75}{Conclusion}{Doc-Start}{}}
\@writefile{snm}{\beamer@slide {agehist}{75}}
\@writefile{nav}{\headcommand {\slideentry {7}{0}{75}{75/75}{}{0}}}
\@writefile{nav}{\headcommand {\beamer@framepages {75}{75}}}
\newlabel{daydist}{{76}{76}{Conclusion}{Doc-Start}{}}
\@writefile{snm}{\beamer@slide {daydist}{76}}
\@writefile{nav}{\headcommand {\slideentry {7}{0}{76}{76/76}{}{0}}}
\@writefile{nav}{\headcommand {\beamer@framepages {76}{76}}}
\newlabel{dayhist}{{77}{77}{Conclusion}{Doc-Start}{}}
\@writefile{snm}{\beamer@slide {dayhist}{77}}
\@writefile{nav}{\headcommand {\slideentry {7}{0}{77}{77/77}{}{0}}}
\@writefile{nav}{\headcommand {\beamer@framepages {77}{77}}}
\newlabel{monthdist}{{78}{78}{Conclusion}{Doc-Start}{}}
\@writefile{snm}{\beamer@slide {monthdist}{78}}
\@writefile{nav}{\headcommand {\slideentry {7}{0}{78}{78/78}{}{0}}}
\@writefile{nav}{\headcommand {\beamer@framepages {78}{78}}}
\newlabel{monthhist}{{79}{79}{Conclusion}{Doc-Start}{}}
\@writefile{snm}{\beamer@slide {monthhist}{79}}
\@writefile{nav}{\headcommand {\slideentry {7}{0}{79}{79/79}{}{0}}}
\@writefile{nav}{\headcommand {\beamer@framepages {79}{79}}}
\newlabel{accagehist}{{80}{80}{Conclusion}{Doc-Start}{}}
\@writefile{snm}{\beamer@slide {accagehist}{80}}
\@writefile{nav}{\headcommand {\slideentry {7}{0}{80}{80/80}{}{0}}}
\@writefile{nav}{\headcommand {\beamer@framepages {80}{80}}}
\newlabel{freqhist}{{81}{81}{Conclusion}{Doc-Start}{}}
\@writefile{snm}{\beamer@slide {freqhist}{81}}
\@writefile{nav}{\headcommand {\slideentry {7}{0}{81}{81/81}{}{0}}}
\@writefile{nav}{\headcommand {\beamer@framepages {81}{81}}}
\newlabel{preturnshist}{{82}{82}{Conclusion}{Doc-Start}{}}
\@writefile{snm}{\beamer@slide {preturnshist}{82}}
\@writefile{nav}{\headcommand {\slideentry {7}{0}{82}{82/82}{}{0}}}
\@writefile{nav}{\headcommand {\beamer@framepages {82}{82}}}
\newlabel{freturnshist}{{83}{83}{Conclusion}{Doc-Start}{}}
\@writefile{snm}{\beamer@slide {freturnshist}{83}}
\@writefile{nav}{\headcommand {\slideentry {7}{0}{83}{83/83}{}{0}}}
\@writefile{nav}{\headcommand {\beamer@framepages {83}{83}}}
\newlabel{freturnshist}{{84}{84}{Conclusion}{Doc-Start}{}}
\@writefile{snm}{\beamer@slide {freturnshist}{84}}
\@writefile{nav}{\headcommand {\slideentry {7}{0}{84}{84/84}{}{0}}}
\@writefile{nav}{\headcommand {\beamer@framepages {84}{84}}}
\newlabel{industry}{{85}{85}{Conclusion}{Doc-Start}{}}
\@writefile{snm}{\beamer@slide {industry}{85}}
\@writefile{nav}{\headcommand {\slideentry {7}{0}{85}{85/85}{}{0}}}
\@writefile{nav}{\headcommand {\beamer@framepages {85}{85}}}
\newlabel{amounthist}{{86}{86}{Conclusion}{Doc-Start}{}}
\@writefile{snm}{\beamer@slide {amounthist}{86}}
\@writefile{nav}{\headcommand {\slideentry {7}{0}{86}{86/86}{}{0}}}
\@writefile{nav}{\headcommand {\beamer@framepages {86}{86}}}
\@writefile{nav}{\headcommand {\beamer@partpages {1}{86}}}
\@writefile{nav}{\headcommand {\beamer@subsectionpages {67}{86}}}
\@writefile{nav}{\headcommand {\beamer@sectionpages {67}{86}}}
\@writefile{nav}{\headcommand {\beamer@documentpages {86}}}
\@writefile{nav}{\headcommand {\def \inserttotalframenumber {86}}}
