\relax 
\providecommand\hyper@newdestlabel[2]{}
\providecommand\HyperFirstAtBeginDocument{\AtBeginDocument}
\HyperFirstAtBeginDocument{\ifx\hyper@anchor\@undefined
\global\let\oldcontentsline\contentsline
\gdef\contentsline#1#2#3#4{\oldcontentsline{#1}{#2}{#3}}
\global\let\oldnewlabel\newlabel
\gdef\newlabel#1#2{\newlabelxx{#1}#2}
\gdef\newlabelxx#1#2#3#4#5#6{\oldnewlabel{#1}{{#2}{#3}}}
\AtEndDocument{\ifx\hyper@anchor\@undefined
\let\contentsline\oldcontentsline
\let\newlabel\oldnewlabel
\fi}
\fi}
\global\let\hyper@last\relax 
\gdef\HyperFirstAtBeginDocument#1{#1}
\providecommand\HyField@AuxAddToFields[1]{}
\providecommand\HyField@AuxAddToCoFields[2]{}
\providecommand \oddpage@label [2]{}
\select@language{USenglish}
\@writefile{toc}{\select@language{USenglish}}
\@writefile{lof}{\select@language{USenglish}}
\@writefile{lot}{\select@language{USenglish}}
\@writefile{toc}{\contentsline {section}{\numberline {1}Introduction}{1}{section.1}}
\@writefile{toc}{\contentsline {subsection}{\numberline {1.1}Implications}{1}{subsection.1.1}}
\@writefile{toc}{\contentsline {section}{\numberline {2}Analysis of Feasible NPD Days}{2}{section.2}}
\@writefile{toc}{\contentsline {subsection}{\numberline {2.1}Feasible NPD Buy-Days}{2}{subsection.2.1}}
\@writefile{toc}{\contentsline {subsection}{\numberline {2.2}Feasible NPD Sell-Days}{3}{subsection.2.2}}
\@writefile{toc}{\contentsline {subsection}{\numberline {2.3}Feasible NPD Buy-and-Sell Days}{3}{subsection.2.3}}
\@writefile{toc}{\contentsline {subsection}{\numberline {2.4}Implications}{3}{subsection.2.4}}
\@writefile{toc}{\contentsline {section}{\numberline {3}Additional Information on NBD vs non-NBD investors}{4}{section.3}}
\@writefile{toc}{\contentsline {subsection}{\numberline {3.1}Mutual Fund Purchases}{4}{subsection.3.1}}
\@writefile{toc}{\contentsline {subsection}{\numberline {3.2}Returns}{4}{subsection.3.2}}
\@writefile{toc}{\contentsline {section}{\numberline {4}Alternative Measure of Uniform Investing}{5}{section.4}}
\@writefile{lot}{\contentsline {table}{\numberline {1}{\ignorespaces Proportion of Buy-Days with NPD by Number of Stocks, Feasible NPD Sample\relax }}{6}{table.caption.2}}
\providecommand*\caption@xref[2]{\@setref\relax\@undefined{#1}}
\newlabel{tab:feasible_buy}{{1}{6}{Proportion of Buy-Days with NPD by Number of Stocks, Feasible NPD Sample\relax }{table.caption.2}{}}
\newlabel{tab:feasible_buy@cref}{{[table][1][]1}{6}}
\@writefile{lot}{\contentsline {table}{\numberline {2}{\ignorespaces Proportion of Sell-Days with NPD by Number of Stocks, Feasible NPD Sample\relax }}{6}{table.caption.4}}
\newlabel{tab:feasible_sell}{{2}{6}{Proportion of Sell-Days with NPD by Number of Stocks, Feasible NPD Sample\relax }{table.caption.4}{}}
\newlabel{tab:feasible_sell@cref}{{[table][2][]2}{6}}
\@writefile{lot}{\contentsline {table}{\numberline {3}{\ignorespaces Proportion of Buy-and-Sell Days with NPD by Number of Stocks, Feasible NPD Sample\relax }}{6}{table.caption.6}}
\newlabel{tab:feasible_both}{{3}{6}{Proportion of Buy-and-Sell Days with NPD by Number of Stocks, Feasible NPD Sample\relax }{table.caption.6}{}}
\newlabel{tab:feasible_both@cref}{{[table][3][]3}{6}}
\@writefile{lot}{\contentsline {table}{\numberline {4}{\ignorespaces Estimated Returns for NBD and non-NBD investors\relax }}{7}{table.caption.8}}
\newlabel{tab:returns}{{4}{7}{Estimated Returns for NBD and non-NBD investors\relax }{table.caption.8}{}}
\newlabel{tab:returns@cref}{{[table][4][]4}{7}}
\@writefile{lof}{\contentsline {figure}{\numberline {1}{\ignorespaces Euclidean Norm Measure of NBD and NPD on Multiple-Stock Buy-Days\relax }}{8}{figure.caption.9}}
\newlabel{buy_norm}{{1}{8}{Euclidean Norm Measure of NBD and NPD on Multiple-Stock Buy-Days\relax }{figure.caption.9}{}}
\newlabel{buy_norm@cref}{{[figure][1][]1}{8}}
\@writefile{lof}{\contentsline {subfigure}{\numberline{(A)}{\ignorespaces {NBD}}}{8}{subfigure.1.2}}
\@writefile{lof}{\contentsline {subfigure}{\numberline{(B)}{\ignorespaces {NPD}}}{8}{subfigure.1.2}}
\@writefile{lot}{\contentsline {table}{\numberline {A1}{\ignorespaces Summary Statistics for Feasible NPD Buy-Days Sample\vspace  {0.5cm}\relax }}{10}{table.caption.13}}
\newlabel{tab:reachable_sum}{{A1}{10}{Summary Statistics for Feasible NPD Buy-Days Sample\vspace {0.5cm}\relax }{table.caption.13}{}}
\newlabel{tab:reachable_sum@cref}{{[table][1][4]A1}{10}}
