\relax 
\citation{DeMiguelGarlappiUppal07}
\citation{DeMiguelGarlappiUppal07}
\citation{DeMiguelGarlappiUppal07}
\citation{DeMiguelGarlappiUppal07}
\@writefile{toc}{\contentsline {section}{\numberline {1}Simulation Analysis}{1}\protected@file@percent }
\newlabel{eq:R}{{1}{1}}
\bibstyle{apalike}
\bibdata{local_refs3}
\@writefile{lot}{\contentsline {table}{\numberline {1}{\ignorespaces Sharpe Ratio for NPD and NBD\relax }}{2}\protected@file@percent }
\providecommand*\caption@xref[2]{\@setref\relax\@undefined{#1}}
\newlabel{table:sim}{{1}{2}}
